<?xml version="1.0" standalone="no"?>
<!DOCTYPE svg PUBLIC "-//W3C//DTD SVG 20010904//EN"
 "http://www.w3.org/TR/2001/REC-SVG-20010904/DTD/svg10.dtd">
<svg version="1.0" xmlns="http://www.w3.org/2000/svg"
 width="284.000000pt" height="235.000000pt" viewBox="0 0 284.000000 235.000000"
 preserveAspectRatio="xMidYMid meet">
<metadata>
Created by potrace 1.14, written by Peter Selinger 2001-2017
</metadata>
<g transform="translate(0.000000,235.000000) scale(0.100000,-0.100000)"
fill="#000000" stroke="none">
<path d="M532 2313 c-23 -24 -42 -37 -45 -30 -2 7 -24 -5 -57 -31 -29 -23 -56
-42 -61 -42 -10 0 -48 -72 -59 -110 -7 -23 -8 -23 -15 13 -4 20 -11 37 -15 37
-10 0 -84 -143 -100 -192 -6 -21 -16 -38 -21 -38 -5 0 -9 -11 -9 -25 0 -18 -4
-23 -16 -18 -14 5 -15 -1 -9 -48 3 -30 13 -80 21 -112 8 -32 14 -65 14 -72 0
-8 -20 -33 -45 -56 -97 -91 -134 -234 -101 -388 19 -90 62 -184 107 -235 33
-38 34 -39 40 -15 4 13 8 49 8 79 1 62 7 74 37 84 30 9 75 -63 78 -127 2 -27
8 -52 15 -56 7 -5 10 -18 6 -34 -6 -23 -4 -25 16 -20 21 6 22 4 16 -38 -4 -24
-10 -54 -13 -67 -5 -18 -3 -21 10 -16 23 9 21 0 -24 -104 -39 -89 -50 -142
-31 -142 5 0 11 6 13 12 3 7 4 -19 4 -57 -1 -81 11 -148 25 -140 5 4 9 21 9
38 0 18 5 50 11 71 9 33 13 37 21 23 11 -21 -12 -108 -49 -181 -38 -74 -47
-276 -13 -276 6 0 10 8 10 18 0 11 14 47 32 82 29 58 32 62 45 44 10 -14 16
-16 21 -6 5 7 13 -7 21 -38 18 -71 31 -71 31 -2 0 65 29 172 40 150 4 -7 10
-30 14 -51 7 -39 26 -42 26 -5 0 35 10 14 26 -53 19 -82 34 -120 46 -113 5 3
6 27 3 52 -7 46 -6 46 10 25 9 -13 20 -23 26 -23 5 0 9 37 10 83 0 45 3 76 6
70 9 -23 23 -14 24 15 0 24 2 23 20 -16 18 -42 134 -210 154 -224 15 -11 23 2
54 82 l29 73 20 -47 c12 -25 25 -46 29 -46 4 0 16 12 26 28 9 15 33 49 53 76
19 28 40 69 47 93 13 50 27 56 27 12 0 -19 4 -28 11 -23 6 3 15 0 20 -7 12
-19 79 57 118 134 l30 58 29 -51 c18 -31 33 -47 37 -40 4 6 15 8 25 5 14 -5
23 2 36 27 9 18 18 34 19 36 2 2 18 -6 36 -17 19 -12 44 -21 57 -21 13 0 32
-5 43 -10 23 -13 23 -15 0 53 l-20 56 40 -26 c24 -16 43 -23 49 -17 5 5 12 46
16 92 4 45 8 82 9 82 1 0 18 -15 38 -34 40 -37 138 -96 150 -89 13 8 7 47 -17
105 l-23 56 56 -3 c31 -1 72 -9 91 -18 19 -8 55 -18 80 -22 l45 -7 -20 23
c-11 13 -13 18 -4 11 28 -21 29 -1 2 46 -18 30 -22 44 -13 40 8 -4 32 -13 53
-22 20 -9 37 -12 37 -7 0 6 -4 13 -10 16 -19 11 -10 23 12 17 22 -5 23 -5 5
19 -21 28 -52 93 -62 129 -5 20 1 16 34 -22 39 -44 104 -79 119 -63 3 3 -1 27
-10 53 -23 64 -13 67 14 4 15 -36 25 -49 33 -42 8 7 40 -14 101 -66 49 -41
117 -92 151 -112 56 -33 63 -41 63 -69 0 -64 -7 -67 -69 -31 -31 17 -73 40
-93 50 -24 11 -40 28 -44 43 -3 14 -11 25 -16 25 -6 0 -7 -8 -3 -17 17 -42 22
-71 16 -82 -8 -13 -24 -8 -123 36 -52 23 -58 29 -58 56 0 17 -3 27 -7 23 -4
-4 -6 -38 -4 -76 l3 -70 -57 26 c-32 13 -75 34 -96 44 -43 22 -49 24 -49 11 0
-4 36 -24 80 -44 70 -32 80 -39 80 -62 0 -32 -54 -172 -78 -203 l-18 -23 -62
69 c-71 80 -202 175 -202 146 0 -5 19 -19 43 -32 55 -30 107 -77 107 -98 0
-19 -53 -106 -75 -124 -18 -15 -31 -7 -138 83 -84 72 -111 90 -121 80 -3 -3 9
-15 27 -26 17 -11 60 -44 95 -75 49 -43 62 -61 62 -83 0 -40 -20 -128 -30
-134 -5 -3 -41 10 -79 30 -86 43 -109 44 -146 5 -35 -37 -67 -38 -120 -5 -22
13 -51 25 -64 25 -17 0 -4 -11 45 -35 38 -19 78 -35 90 -35 11 0 36 14 54 30
18 17 44 30 56 30 12 0 55 -16 96 -35 l73 -36 17 38 c10 21 18 56 18 79 0 49
5 55 35 44 20 -8 29 -4 54 26 17 19 40 53 51 75 l21 40 41 -50 c23 -28 46 -51
52 -51 23 0 97 151 113 230 4 21 10 29 19 26 11 -4 14 6 14 39 0 25 4 45 9 45
5 0 37 -13 72 -29 35 -17 76 -33 92 -37 24 -5 27 -3 27 20 0 14 5 26 12 26 6
0 42 -18 79 -40 90 -53 105 -53 114 5 l6 45 50 -27 c28 -16 69 -43 91 -62 32
-28 39 -31 36 -15 -2 12 -59 53 -159 114 -86 52 -201 132 -255 177 -90 74
-101 87 -115 135 -9 29 -24 71 -33 93 -12 28 -12 35 -3 23 22 -28 30 -21 22
19 -10 54 -37 102 -87 152 -27 28 -35 39 -20 32 13 -7 26 -10 29 -7 9 8 -16
70 -48 120 -26 42 -27 47 -10 41 18 -5 19 -3 12 23 -17 57 -76 157 -125 210
-31 33 -27 45 6 15 10 -9 21 -14 24 -10 10 9 -13 42 -40 56 -22 12 -23 15 -10
29 13 13 13 17 -3 35 -10 11 -49 34 -86 52 -37 18 -62 36 -55 38 9 4 5 12 -12
28 l-25 22 42 -7 c23 -3 50 -9 60 -13 14 -5 13 -1 -7 21 -26 29 -101 70 -182
101 -27 10 -48 21 -48 26 0 4 -10 11 -21 14 -16 5 -18 9 -9 15 9 6 6 10 -10
15 -65 21 -93 37 -79 45 10 7 2 14 -33 30 -25 11 -61 23 -80 27 -18 3 -39 15
-46 25 -7 10 -19 18 -27 18 -8 0 -12 6 -9 14 9 23 -53 49 -118 50 -52 1 -57 3
-52 20 6 17 2 18 -34 12 -22 -3 -47 -9 -56 -12 -12 -5 -15 -2 -10 10 5 13 -1
16 -31 16 -25 0 -34 4 -29 12 5 8 -3 9 -29 5 -21 -3 -37 -2 -37 4 0 15 -52 10
-98 -11 -42 -19 -42 -19 -32 0 10 18 7 20 -20 20 -17 0 -47 -7 -67 -15 -19 -8
-38 -15 -40 -15 -3 0 0 7 7 15 10 13 9 15 -10 15 -19 0 -20 2 -10 15 16 20 0
19 -55 0 -48 -18 -48 -18 -40 -5 8 13 -5 13 -25 0 -11 -7 -17 -5 -21 8 -5 14
-13 10 -47 -25z m147 -4 c-10 -19 -9 -20 13 -14 22 7 22 7 6 -12 -33 -37 -18
-42 38 -12 67 35 105 39 97 9 -3 -11 0 -20 6 -20 7 0 29 9 51 20 22 11 49 20
61 20 19 0 20 -2 8 -17 -12 -15 -12 -16 6 -11 11 3 29 9 39 14 16 6 18 4 13
-9 -7 -20 -4 -20 42 -7 31 9 33 8 27 -14 l-6 -24 47 14 c59 18 63 18 63 -5 0
-16 6 -17 48 -14 26 3 63 1 82 -4 29 -8 35 -14 35 -37 -1 -18 3 -25 12 -22 7
3 20 3 28 -1 14 -5 14 -8 -2 -26 -18 -20 -17 -20 10 -13 31 7 147 -21 147 -36
0 -5 -7 -12 -17 -15 -11 -4 -2 -11 31 -20 38 -11 45 -17 37 -27 -9 -11 -4 -15
23 -20 23 -4 33 -11 30 -20 -3 -8 12 -16 47 -24 51 -12 175 -67 184 -82 3 -4
-26 -6 -63 -4 l-67 4 45 -21 c42 -19 44 -21 26 -34 -19 -14 -19 -15 0 -21 10
-4 48 -20 84 -36 51 -23 62 -31 50 -39 -11 -8 -12 -12 -2 -16 6 -2 9 -10 6
-15 -4 -6 1 -17 11 -25 18 -12 18 -13 -4 -13 -19 0 -14 -7 32 -52 29 -29 72
-85 95 -124 44 -73 55 -107 27 -84 -8 6 -21 10 -30 8 -14 -2 -11 -10 15 -43
18 -22 43 -61 56 -88 l24 -47 -42 6 -43 6 58 -52 c32 -29 69 -75 84 -103 l25
-51 -37 32 c-20 18 -39 32 -40 30 -2 -2 16 -44 40 -93 57 -118 67 -156 18 -76
-45 75 -98 139 -108 129 -4 -3 11 -37 34 -75 22 -37 47 -86 56 -108 l17 -40
-31 35 c-26 30 -30 32 -31 15 0 -11 7 -32 17 -45 12 -18 6 -15 -21 10 -21 19
-46 50 -57 68 -12 17 -24 32 -29 32 -10 0 16 -114 35 -155 l15 -30 -25 30
c-13 16 -27 26 -30 23 -7 -7 20 -64 43 -90 20 -24 7 -23 -34 2 -31 19 -84 106
-84 137 0 7 -5 13 -10 13 -16 0 -1 -47 41 -134 22 -43 37 -81 35 -84 -3 -2
-30 20 -60 50 -41 42 -58 68 -70 108 -9 30 -16 60 -16 67 0 7 -5 13 -11 13
-16 0 -3 -74 21 -125 11 -22 42 -66 70 -97 l51 -57 -44 13 c-93 28 -202 122
-267 230 -13 22 -26 34 -28 28 -7 -21 47 -101 114 -169 67 -69 67 -70 -13 -47
-22 6 -21 3 12 -61 32 -61 44 -105 29 -105 -4 0 -32 15 -63 34 -55 34 -81 62
-91 100 -3 11 -11 21 -17 23 -7 3 -13 -30 -18 -95 -9 -131 -14 -137 -66 -87
l-41 40 5 -45 c3 -25 9 -56 13 -70 4 -17 3 -22 -3 -15 -6 6 -23 48 -38 95 -38
114 -78 201 -104 224 -11 11 -21 14 -21 8 0 -6 5 -14 10 -17 6 -4 21 -27 34
-53 31 -62 88 -225 76 -217 -16 10 -77 127 -91 173 -14 49 -30 57 -19 10 9
-42 37 -102 71 -153 45 -70 46 -72 14 -51 -16 11 -44 35 -62 54 -27 28 -33 43
-33 79 0 73 -50 163 -89 163 -11 -1 -7 -7 12 -21 34 -26 52 -61 62 -117 6 -38
-2 -148 -10 -140 -2 2 -11 39 -20 83 -16 76 -51 174 -41 115 2 -14 12 -58 21
-99 9 -41 15 -88 13 -105 l-3 -31 -27 42 c-15 23 -32 64 -38 90 -20 89 -31
123 -39 123 -5 0 -3 -24 5 -52 30 -113 12 -193 -62 -274 l-35 -39 6 30 c35
157 50 265 37 265 -5 0 -14 -42 -21 -92 -7 -51 -18 -115 -25 -141 l-12 -48
-17 60 c-36 130 -42 193 -23 250 20 61 14 81 -9 28 -19 -47 -19 -130 1 -218
15 -69 15 -73 -6 -140 -16 -48 -35 -83 -62 -112 -24 -26 -37 -34 -33 -22 4 11
16 56 27 100 30 116 29 305 -1 305 -5 0 -5 -16 1 -37 20 -74 -12 -311 -52
-382 -11 -20 -58 128 -72 231 -9 66 -9 84 5 118 8 22 12 40 8 40 -13 0 -31
-50 -31 -88 l-1 -37 -19 23 c-27 32 -61 128 -67 190 -3 29 -10 55 -16 59 -17
10 0 -99 27 -172 13 -35 35 -79 48 -97 26 -34 60 -151 58 -203 0 -31 -40 -149
-47 -142 -6 7 -53 317 -53 355 0 17 -4 32 -10 32 -14 0 -13 -9 19 -224 31
-211 36 -204 -55 -74 -28 40 -56 88 -63 107 -15 46 -14 136 3 193 19 62 7 71
-13 10 -16 -45 -110 -187 -119 -178 -7 7 37 156 59 199 12 23 32 57 46 74 13
18 20 33 14 33 -31 0 -112 -166 -127 -258 -10 -62 -24 -40 -24 36 0 48 9 91
29 150 32 90 25 115 -8 28 -27 -73 -45 -179 -37 -226 4 -23 1 -48 -7 -64 -13
-24 -14 -23 -26 40 -11 61 -10 68 10 100 12 19 19 38 15 41 -8 8 -7 10 -50
-68 -40 -72 -46 -97 -16 -60 26 31 25 22 -7 -79 l-27 -85 -13 65 c-7 36 -12
86 -13 113 0 26 -4 47 -9 47 -9 0 -21 -72 -21 -128 0 -21 -13 -56 -34 -91 -18
-31 -36 -63 -40 -71 -3 -8 -5 23 -3 70 1 64 7 95 23 125 36 69 55 139 52 196
-2 30 1 64 5 77 5 13 4 22 -1 22 -11 0 -14 -7 -48 -100 l-24 -65 0 50 c0 28 7
74 14 103 15 56 13 61 -17 35 -16 -15 -14 -8 8 42 58 128 61 136 44 149 -11 8
-13 20 -8 46 9 43 2 80 -17 80 -8 0 -11 6 -8 15 4 9 -1 18 -11 21 -13 5 -15
15 -10 43 4 29 -1 46 -28 91 l-34 56 103 43 c56 24 108 40 114 36 9 -5 9 -9 1
-14 -6 -4 -16 -45 -22 -92 -5 -46 -14 -96 -19 -111 -10 -30 4 -39 14 -11 4 10
12 54 17 98 6 44 14 84 18 88 13 13 44 -177 39 -233 -5 -54 6 -68 17 -21 6 29
-7 148 -25 226 -5 22 -7 41 -5 44 6 6 50 -95 66 -150 9 -31 14 -38 16 -23 2
11 -5 44 -17 73 -11 28 -20 55 -20 58 0 15 73 -65 98 -106 14 -24 28 -39 30
-32 6 17 -61 115 -94 138 -14 10 -38 29 -51 43 -14 14 -29 24 -34 23 -17 -5
-9 15 9 22 9 5 61 11 115 14 110 8 136 21 100 51 l-22 18 21 5 c13 4 19 11 15
20 -7 20 32 27 143 27 111 0 190 24 164 50 -14 14 -341 78 -445 87 l-83 8 -8
45 c-19 112 -113 190 -229 190 -46 0 -64 -5 -79 -20 -11 -11 -22 -20 -24 -20
-2 0 -9 29 -16 66 -11 58 -11 66 4 77 9 7 24 39 32 72 9 33 32 94 51 135 l36
75 12 -35 c6 -19 15 -35 19 -35 4 0 16 24 26 54 21 58 38 84 51 76 4 -3 24 11
42 32 l34 37 -5 -52 c-5 -58 12 -73 23 -19 10 43 27 76 59 110 23 25 28 27 41
13 8 -8 15 -20 15 -27 0 -8 5 -7 18 3 14 13 71 46 80 48 1 0 -2 -9 -9 -21z
m-429 -585 c0 -3 -8 -18 -19 -32 -29 -42 -43 -72 -33 -72 5 0 23 23 40 50 26
42 36 50 62 50 38 0 101 -31 134 -67 30 -32 56 -102 56 -150 0 -31 1 -32 25
-23 26 10 176 -7 300 -34 66 -14 65 -15 -55 -36 -61 -10 -87 -17 -235 -60
l-61 -17 3 31 c4 38 -6 50 -79 104 -31 23 -64 52 -72 64 -9 12 -19 18 -23 14
-4 -4 12 -25 37 -47 137 -120 131 -113 119 -146 -6 -20 -22 -36 -42 -44 -18
-8 -48 -28 -68 -46 -20 -18 -57 -42 -82 -53 -46 -20 -81 -55 -92 -90 -3 -11
-9 -48 -13 -82 l-7 -63 -30 90 c-26 78 -30 104 -29 195 1 78 6 121 22 170 26
79 27 110 2 53 -47 -106 -53 -311 -12 -425 12 -32 19 -58 17 -58 -8 0 -54 90
-71 140 -14 41 -19 84 -19 170 0 102 3 121 25 165 13 27 46 71 72 98 28 28 53
65 60 89 6 21 21 46 32 54 21 15 36 18 36 8z m760 -323 c0 -16 -36 -22 -174
-30 -134 -8 -171 -16 -145 -32 14 -8 11 -10 -31 -21 -9 -3 -4 -11 18 -23 18
-11 32 -23 32 -27 0 -4 -33 -8 -72 -8 -91 0 -148 -15 -310 -82 -70 -28 -131
-49 -134 -45 -12 12 20 40 71 63 28 12 61 34 75 49 14 15 45 36 70 47 64 28
262 86 350 102 87 16 250 20 250 7z"/>
<path d="M738 2095 c-15 -8 -29 -23 -33 -33 -3 -11 -16 -24 -29 -30 -13 -6
-40 -25 -60 -42 -20 -18 -36 -28 -36 -24 0 5 -20 -12 -45 -36 -39 -38 -45 -41
-45 -23 0 30 -17 38 -30 14 -16 -32 -25 -111 -11 -111 6 0 11 17 11 40 0 22 5
40 10 40 6 0 10 -4 10 -10 0 -20 27 -9 48 20 13 17 28 27 36 24 8 -3 23 7 35
25 12 16 38 40 59 52 20 12 47 34 59 48 17 19 21 21 16 7 -6 -17 -2 -18 43
-11 48 7 48 7 31 -12 -9 -11 -17 -23 -17 -26 0 -4 39 -6 88 -6 l87 2 -74 11
c-65 10 -72 13 -58 25 27 21 20 26 -28 23 -48 -4 -51 -2 -35 29 13 22 5 23
-32 4z"/>
<path d="M895 1788 c-16 -6 -50 -24 -75 -39 -50 -30 -127 -54 -207 -64 -29 -4
-56 -12 -60 -17 -4 -8 4 -9 23 -5 100 20 150 19 192 -2 23 -12 42 -25 42 -30
0 -5 17 -16 38 -24 20 -9 31 -16 25 -16 -7 -1 -13 -5 -13 -11 0 -15 115 -12
175 5 47 14 105 55 77 55 -6 0 -13 -4 -17 -9 -8 -14 -93 -39 -150 -45 -50 -5
-50 -5 -15 7 59 21 79 36 100 76 10 21 27 42 37 46 10 4 63 11 118 15 57 4
115 14 135 24 35 16 35 16 5 11 -16 -3 -53 -10 -82 -15 -45 -9 -66 -7 -172 20
-132 33 -133 33 -176 18z m127 -50 c21 -61 -43 -128 -122 -128 -34 0 -48 6
-76 34 -19 19 -34 41 -34 50 0 20 32 35 38 17 16 -49 92 -66 130 -31 25 24 28
40 8 40 -19 0 -29 17 -22 36 4 10 16 14 38 12 24 -2 34 -9 40 -30z"/>
<path d="M1610 1670 c0 -4 21 -15 46 -24 95 -32 191 -118 270 -241 l19 -30
-29 19 c-86 55 -147 86 -172 86 -27 0 -27 0 12 -28 46 -34 78 -69 54 -59 -69
27 -155 48 -191 45 l-44 -3 50 -27 c28 -14 59 -34 70 -42 19 -15 18 -16 -22
-10 -24 4 -43 4 -43 0 0 -3 33 -21 73 -40 113 -54 185 -118 230 -204 46 -87
59 -90 22 -6 -29 66 -49 90 -120 146 -27 22 -57 51 -66 66 -13 24 -32 38 -125
99 -17 11 -15 12 11 7 30 -6 144 -44 178 -58 25 -12 21 7 -9 43 -33 40 -25 39
40 -3 30 -19 68 -42 85 -51 l32 -16 -17 33 c-52 102 -143 203 -226 252 -53 31
-128 58 -128 46z"/>
<path d="M1254 1207 c127 -103 216 -199 253 -272 14 -28 12 -27 -28 12 -49 46
-154 113 -178 113 -13 -1 -12 -4 4 -15 43 -31 96 -92 113 -127 15 -32 32 -50
32 -33 0 11 -32 70 -48 88 -8 9 -10 17 -5 17 6 0 46 -33 89 -72 69 -65 77 -70
70 -44 -9 35 -65 124 -120 190 -44 51 -193 176 -211 175 -5 0 8 -14 29 -32z"/>
</g>
</svg>
